Lab1/testbench/xsim.log
#-----------------------------------------------------------
# xsim v2022.1 (64-bit)
# SW Build 3526262 on Mon Apr 18 15:47:01 MDT 2022
# IP Build 3524634 on Mon Apr 18 20:55:01 MDT 2022
# Start of session at: Fri Mar 15 17:12:54 2024
# Process ID: 850004
# Current directory: /home/eehpc/ASoC/caravel-soc_fpga-lab/fsic-sim/fsic_fpga/rtl/user/testbench/tc
# Command line: xsim -mode tcl -source {xsim.dir/tb_fsic_xelab/xsim_script.tcl}
# Log file: /home/eehpc/ASoC/caravel-soc_fpga-lab/fsic-sim/fsic_fpga/rtl/user/testbench/tc/xsim.log
# Journal file: /home/eehpc/ASoC/caravel-soc_fpga-lab/fsic-sim/fsic_fpga/rtl/user/testbench/tc/xsim.jou
# Running On: eehpc-ASUSPRO-D840MB-M840MB, OS: Linux, CPU Frequency: 3000.000 MHz, CPU Physical cores: 8, Host memory: 67292 MB
#-----------------------------------------------------------
source xsim.dir/tb_fsic_xelab/xsim_script.tcl
# xsim {tb_fsic_xelab} -autoloadwcfg -tclbatch {log_wave.tcl}
Time resolution is 1 ps
open_wave_config /home/eehpc/ASoC/caravel-soc_fpga-lab/fsic-sim/fsic_fpga/rtl/user/testbench/tc/tb_fsic_xelab.wcfg
WARNING: Simulation object /tb_fsic/dut/U_MPRJ_IO0/vccd1 was not found in the design.
WARNING: Simulation object /tb_fsic/dut/U_MPRJ_IO0/vccd2 was not found in the design.
WARNING: Simulation object /tb_fsic/dut/U_MPRJ_IO0/vssd1 was not found in the design.
WARNING: Simulation object /tb_fsic/dut/U_MPRJ_IO0/vssd2 was not found in the design.
WARNING: Simulation object /tb_fsic/vccd1 was not found in the design.
WARNING: Simulation object /tb_fsic/vccd2 was not found in the design.
WARNING: Simulation object /tb_fsic/vssd1 was not found in the design.
WARNING: Simulation object /tb_fsic/vssd2 was not found in the design.
WARNING: Simulation object /tb_fsic/dut/AXIS_SW0/pre_rd_ptr_reg was not found in the design.
WARNING: Simulation object /tb_fsic/dut/AXIS_SW0/as_up_tvalid_reg was not found in the design.
WARNING: Simulation object /tb_fsic/dut/AXIS_SW0/as_aa_tvalid_reg was not found in the design.
WARNING: Simulation object /tb_fsic/dut/AXIS_SW0/delaynext was not found in the design.
WARNING: Simulation object /tb_fsic/dut/AXIS_SW0/pre_m_axis was not found in the design.
WARNING: Simulation object /tb_fsic/dut/U_USER_SUBSYS0/U_USRPRJ0/reg_edgedetect_done was not found in the design.
WARNING: Simulation object /tb_fsic/dut/U_USER_SUBSYS0/U_USRPRJ0/edgedetect_done was not found in the design.
WARNING: Simulation object /tb_fsic/dut/U_USER_SUBSYS0/U_USRPRJ0/rd_state was not found in the design.
WARNING: Simulation object /tb_fsic/dut/U_USER_SUBSYS0/U_USRPRJ0/rd_next_state was not found in the design.
WARNING: Simulation object /tb_fsic/dut/U_USER_SUBSYS0/U_USRPRJ0/reg_widthIn was not found in the design.
WARNING: Simulation object /tb_fsic/dut/U_USER_SUBSYS0/U_USRPRJ0/reg_heightIn was not found in the design.
WARNING: Simulation object /tb_fsic/dut/U_USER_SUBSYS0/U_USRPRJ0/reg_sw_in was not found in the design.
WARNING: Simulation object /tb_fsic/dut/U_USER_SUBSYS0/U_USRPRJ0/reg_rst was not found in the design.
WARNING: Simulation object /tb_fsic/dut/U_USER_SUBSYS0/U_USRPRJ0/crc32_stream_in was not found in the design.
WARNING: Simulation object /tb_fsic/dut/U_USER_SUBSYS0/U_USRPRJ0/crc32_stream_out was not found in the design.
WARNING: Simulation object /tb_fsic/dut/U_USER_SUBSYS0/U_USRPRJ0/reg_crc32_stream_in was not found in the design.
WARNING: Simulation object /tb_fsic/dut/U_USER_SUBSYS0/U_USRPRJ0/reg_crc32_stream_out was not found in the design.
WARNING: Simulation object /tb_fsic/dut/AXIS_SW0/as_up_tvalid_reg was not found in the design.
WARNING: Simulation object /tb_fsic/dut/AXIS_SW0/pre_rd_ptr_reg was not found in the design.
WARNING: Simulation object /tb_fsic/dut/AXIS_SW0/as_up_tvalid_reg was not found in the design.
WARNING: Simulation object /tb_fsic/dut/AXIS_SW0/as_aa_tvalid_reg was not found in the design.
WARNING: Simulation object /tb_fsic/dut/AXIS_SW0/delaynext was not found in the design.
WARNING: Simulation object /tb_fsic/dut/AXIS_SW0/pre_m_axis was not found in the design.
source log_wave.tcl
## log_wave -quiet -verbose -recursive *
## run all
Test 1 start
fsic system initial
                  40=> soc POR Assert
                  40=> fpga POR Assert
                  40=> fpga reset Assert
                  80=> soc POR De-Assert
                  80=> fpga POR De-Assert
                 120=> fpga reset De-Assert
                 185=> fpga_as_to_is_init done
                 225=> fpga_cfg_write : fpga_axi_awaddr=0000, fpga_axi_awvalid=1, fpga_axi_awready=1, fpga_axi_wdata=00000001, axi_wstrb=1, fpga_axi_wvalid=1, fpga_axi_wready=1
                 425=> soc_is_cfg_write : wbs_adr=30003000, wbs_sel=0001, wbs_wdata=00000001
                 865=> fpga_cfg_write : fpga_axi_awaddr=0000, fpga_axi_awvalid=1, fpga_axi_awready=1, fpga_axi_wdata=00000003, axi_wstrb=1, fpga_axi_wvalid=1, fpga_axi_wready=1
                1025=> soc_is_cfg_write : wbs_adr=30003000, wbs_sel=0001, wbs_wdata=00000003
enable_user_project_1
                1265=> soc_up_idx_cfg_write : wbs_adr=30005000, wbs_sel=0001, wbs_wdata=00000001
                1505=> soc_up_idx_cfg_read : wbs_adr=30005000, wbs_sel=0001
                1505=> soc wishbone read data result : send soc_cfg_read_event
                1505=> soc_up_idx_cfg_read : got soc_cfg_read_event
                1505=> enable_user_project_1 [PASS] cfg_read_data_expect_value=00000001, cfg_read_data_captured=00000001
-----------------
check_fir_idle
                1825=> soc_up_cfg_read : wbs_adr=30000000, wbs_sel=0001
                1825=> soc wishbone read data result : send soc_cfg_read_event
                1825=> soc_up_cfg_read : got soc_cfg_read_event
                1825=> check_fir_idle cfg_read_data_expect_value=00000004, cfg_read_data_captured=00000004
program_data_length
                2225=> soc_up_cfg_write : wbs_adr=30000010, wbs_sel=1111, wbs_wdata=00000040
program_data_tap
                2585=> soc_up_cfg_write : wbs_adr=30000020, wbs_sel=1111, wbs_wdata=00000000
                2865=> soc_up_cfg_write : wbs_adr=30000024, wbs_sel=1111, wbs_wdata=fffffff6
                3145=> soc_up_cfg_write : wbs_adr=30000028, wbs_sel=1111, wbs_wdata=fffffff7
                3425=> soc_up_cfg_write : wbs_adr=3000002c, wbs_sel=1111, wbs_wdata=00000017
                3705=> soc_up_cfg_write : wbs_adr=30000030, wbs_sel=1111, wbs_wdata=00000038
                3985=> soc_up_cfg_write : wbs_adr=30000034, wbs_sel=1111, wbs_wdata=0000003f
                4265=> soc_up_cfg_write : wbs_adr=30000038, wbs_sel=1111, wbs_wdata=00000038
                4545=> soc_up_cfg_write : wbs_adr=3000003c, wbs_sel=1111, wbs_wdata=00000017
                4825=> soc_up_cfg_write : wbs_adr=30000040, wbs_sel=1111, wbs_wdata=fffffff7
                5105=> soc_up_cfg_write : wbs_adr=30000044, wbs_sel=1111, wbs_wdata=fffffff6
                5385=> soc_up_cfg_write : wbs_adr=30000048, wbs_sel=1111, wbs_wdata=00000000
readback_data_length
                5705=> soc_up_cfg_read : wbs_adr=30000010, wbs_sel=1111
                5705=> soc wishbone read data result : send soc_cfg_read_event
                5705=> soc_up_cfg_read : got soc_cfg_read_event
                5705=> readback_data_length [PASS] cfg_read_data_expect_value=00000040, cfg_read_data_captured=00000040
-----------------
readback_data_tap
                6065=> soc_up_cfg_read : wbs_adr=30000020, wbs_sel=1111
                6065=> soc wishbone read data result : send soc_cfg_read_event
                6065=> soc_up_cfg_read : got soc_cfg_read_event
                6065=> readback_data_length [PASS] cfg_read_data_expect_value=00000000, cfg_read_data_captured=00000000
                6345=> soc_up_cfg_read : wbs_adr=30000024, wbs_sel=1111
                6345=> soc wishbone read data result : send soc_cfg_read_event
                6345=> soc_up_cfg_read : got soc_cfg_read_event
                6345=> readback_data_length [PASS] cfg_read_data_expect_value=fffffff6, cfg_read_data_captured=fffffff6
                6625=> soc_up_cfg_read : wbs_adr=30000028, wbs_sel=1111
                6625=> soc wishbone read data result : send soc_cfg_read_event
                6625=> soc_up_cfg_read : got soc_cfg_read_event
                6625=> readback_data_length [PASS] cfg_read_data_expect_value=fffffff7, cfg_read_data_captured=fffffff7
                6905=> soc_up_cfg_read : wbs_adr=3000002c, wbs_sel=1111
                6905=> soc wishbone read data result : send soc_cfg_read_event
                6905=> soc_up_cfg_read : got soc_cfg_read_event
                6905=> readback_data_length [PASS] cfg_read_data_expect_value=00000017, cfg_read_data_captured=00000017
                7185=> soc_up_cfg_read : wbs_adr=30000030, wbs_sel=1111
                7185=> soc wishbone read data result : send soc_cfg_read_event
                7185=> soc_up_cfg_read : got soc_cfg_read_event
                7185=> readback_data_length [PASS] cfg_read_data_expect_value=00000038, cfg_read_data_captured=00000038
                7465=> soc_up_cfg_read : wbs_adr=30000034, wbs_sel=1111
                7465=> soc wishbone read data result : send soc_cfg_read_event
                7465=> soc_up_cfg_read : got soc_cfg_read_event
                7465=> readback_data_length [PASS] cfg_read_data_expect_value=0000003f, cfg_read_data_captured=0000003f
                7745=> soc_up_cfg_read : wbs_adr=30000038, wbs_sel=1111
                7745=> soc wishbone read data result : send soc_cfg_read_event
                7745=> soc_up_cfg_read : got soc_cfg_read_event
                7745=> readback_data_length [PASS] cfg_read_data_expect_value=00000038, cfg_read_data_captured=00000038
                8025=> soc_up_cfg_read : wbs_adr=3000003c, wbs_sel=1111
                8025=> soc wishbone read data result : send soc_cfg_read_event
                8025=> soc_up_cfg_read : got soc_cfg_read_event
                8025=> readback_data_length [PASS] cfg_read_data_expect_value=00000017, cfg_read_data_captured=00000017
                8305=> soc_up_cfg_read : wbs_adr=30000040, wbs_sel=1111
                8305=> soc wishbone read data result : send soc_cfg_read_event
                8305=> soc_up_cfg_read : got soc_cfg_read_event
                8305=> readback_data_length [PASS] cfg_read_data_expect_value=fffffff7, cfg_read_data_captured=fffffff7
                8585=> soc_up_cfg_read : wbs_adr=30000044, wbs_sel=1111
                8585=> soc wishbone read data result : send soc_cfg_read_event
                8585=> soc_up_cfg_read : got soc_cfg_read_event
                8585=> readback_data_length [PASS] cfg_read_data_expect_value=fffffff6, cfg_read_data_captured=fffffff6
                8865=> soc_up_cfg_read : wbs_adr=30000048, wbs_sel=1111
                8865=> soc wishbone read data result : send soc_cfg_read_event
                8865=> soc_up_cfg_read : got soc_cfg_read_event
                8865=> readback_data_length [PASS] cfg_read_data_expect_value=00000000, cfg_read_data_captured=00000000
-----------------
program_start
                9225=> soc_up_cfg_write : wbs_adr=30000000, wbs_sel=0001, wbs_wdata=00000001
start_fir
                9625=> soc_aa_cfg_write : wbs_adr=30002000, wbs_sel=1111, wbs_wdata=a5a5a5a5
               10105=> get soc_to_fpga_mailbox_write_addr_captured be : soc_to_fpga_mailbox_write_addr_captured =xxxxxxxx, fpga_is_as_tdata=f0002000
               10105=> get soc_to_fpga_mailbox_write_addr_captured af : soc_to_fpga_mailbox_write_addr_captured =f0002000, fpga_is_as_tdata=f0002000
               10345=> get soc_to_fpga_mailbox_write_data_captured be : soc_to_fpga_mailbox_write_data_captured =xxxxxxxx, fpga_is_as_tdata=a5a5a5a5
               10345=> get soc_to_fpga_mailbox_write_data_captured af : soc_to_fpga_mailbox_write_data_captured =a5a5a5a5, fpga_is_as_tdata=a5a5a5a5
               10345=> soc_to_fpga_mailbox_write_data_captured : send soc_to_fpga_mailbox_write_event
               10345=> start_fir_aa_mailbox_soc_cfg : got soc_to_fpga_mailbox_write_event
               10345=> start_fir_aa_mailbox_soc_cfg [PASS] soc_to_fpga_mailbox_write_addr_expect_value=0002000, soc_to_fpga_mailbox_write_addr_captured[27:0]=0002000
               10345=> start_fir_aa_mailbox_soc_cfg [PASS] soc_to_fpga_mailbox_write_addr_BE_expect_value=f, soc_to_fpga_mailbox_write_addr_captured[31:28]=f
               10345=> start_fir_aa_mailbox_soc_cfg [PASS] soc_to_fpga_mailbox_write_data_expect_value=a5a5a5a5, soc_to_fpga_mailbox_write_data_captured=a5a5a5a5
-----------------
fir_stream
               10665=> fpga_axis_req send data, fpga_as_is_tupsb = 00000, fpga_as_is_tstrb = 0000, fpga_as_is_tkeep = 0000, fpga_as_is_tlast = 0, fpga_as_is_tdata = 00000000
               10705=> fpga_axis_req send data, fpga_as_is_tupsb = 00000, fpga_as_is_tstrb = 0000, fpga_as_is_tkeep = 0000, fpga_as_is_tlast = 0, fpga_as_is_tdata = 00000001
               10745=> fpga_axis_req send data, fpga_as_is_tupsb = 00000, fpga_as_is_tstrb = 0000, fpga_as_is_tkeep = 0000, fpga_as_is_tlast = 0, fpga_as_is_tdata = 00000002
               10785=> fpga_axis_req send data, fpga_as_is_tupsb = 00000, fpga_as_is_tstrb = 0000, fpga_as_is_tkeep = 0000, fpga_as_is_tlast = 0, fpga_as_is_tdata = 00000003
               10825=> fpga_axis_req send data, fpga_as_is_tupsb = 00000, fpga_as_is_tstrb = 0000, fpga_as_is_tkeep = 0000, fpga_as_is_tlast = 0, fpga_as_is_tdata = 00000004
               10865=> fpga_axis_req send data, fpga_as_is_tupsb = 00000, fpga_as_is_tstrb = 0000, fpga_as_is_tkeep = 0000, fpga_as_is_tlast = 0, fpga_as_is_tdata = 00000005
               10905=> fpga_axis_req send data, fpga_as_is_tupsb = 00000, fpga_as_is_tstrb = 0000, fpga_as_is_tkeep = 0000, fpga_as_is_tlast = 0, fpga_as_is_tdata = 00000006
               10945=> fpga_axis_req send data, fpga_as_is_tupsb = 00000, fpga_as_is_tstrb = 0000, fpga_as_is_tkeep = 0000, fpga_as_is_tlast = 0, fpga_as_is_tdata = 00000007
               10985=> fpga_axis_req send data, fpga_as_is_tupsb = 00000, fpga_as_is_tstrb = 0000, fpga_as_is_tkeep = 0000, fpga_as_is_tlast = 0, fpga_as_is_tdata = 00000008
               11025=> fpga_axis_req send data, fpga_as_is_tupsb = 00000, fpga_as_is_tstrb = 0000, fpga_as_is_tkeep = 0000, fpga_as_is_tlast = 0, fpga_as_is_tdata = 00000009
               11065=> fpga_axis_req send data, fpga_as_is_tupsb = 00000, fpga_as_is_tstrb = 0000, fpga_as_is_tkeep = 0000, fpga_as_is_tlast = 0, fpga_as_is_tdata = 0000000a
               11105=> fpga_axis_req send data, fpga_as_is_tupsb = 00000, fpga_as_is_tstrb = 0000, fpga_as_is_tkeep = 0000, fpga_as_is_tlast = 0, fpga_as_is_tdata = 0000000b
               11145=> fpga_axis_req send data, fpga_as_is_tupsb = 00000, fpga_as_is_tstrb = 0000, fpga_as_is_tkeep = 0000, fpga_as_is_tlast = 0, fpga_as_is_tdata = 0000000c
               11185=> fpga_axis_req send data, fpga_as_is_tupsb = 00000, fpga_as_is_tstrb = 0000, fpga_as_is_tkeep = 0000, fpga_as_is_tlast = 0, fpga_as_is_tdata = 0000000d
               11225=> fpga_axis_req send data, fpga_as_is_tupsb = 00000, fpga_as_is_tstrb = 0000, fpga_as_is_tkeep = 0000, fpga_as_is_tlast = 0, fpga_as_is_tdata = 0000000e
               11265=> fpga_axis_req send data, fpga_as_is_tupsb = 00000, fpga_as_is_tstrb = 0000, fpga_as_is_tkeep = 0000, fpga_as_is_tlast = 0, fpga_as_is_tdata = 0000000f
               11305=> fpga_axis_req send data, fpga_as_is_tupsb = 00000, fpga_as_is_tstrb = 0000, fpga_as_is_tkeep = 0000, fpga_as_is_tlast = 0, fpga_as_is_tdata = 00000010
               11585=> get soc_to_fpga_axis be : soc_to_fpga_axis_captured_count=  0,  soc_to_fpga_axis_captured[  0] =xxxxxxxxxxxx, fpga_is_as_tupsb=00, fpga_is_as_tstrb=0, fpga_is_as_tkeep=0 , fpga_is_as_tlast=0, fpga_is_as_tdata=00000000
               11585=> get soc_to_fpga_axis af : soc_to_fpga_axis_captured_count=  0,  soc_to_fpga_axis_captured[  0] =000000000000, fpga_is_as_tupsb=00, fpga_is_as_tstrb=0, fpga_is_as_tkeep=0 , fpga_is_as_tlast=0, fpga_is_as_tdata=00000000
               12145=> get soc_to_fpga_axis be : soc_to_fpga_axis_captured_count=  1,  soc_to_fpga_axis_captured[  1] =xxxxxxxxxxxx, fpga_is_as_tupsb=00, fpga_is_as_tstrb=0, fpga_is_as_tkeep=0 , fpga_is_as_tlast=0, fpga_is_as_tdata=00000000
               12145=> get soc_to_fpga_axis af : soc_to_fpga_axis_captured_count=  1,  soc_to_fpga_axis_captured[  1] =000000000000, fpga_is_as_tupsb=00, fpga_is_as_tstrb=0, fpga_is_as_tkeep=0 , fpga_is_as_tlast=0, fpga_is_as_tdata=00000000
               12705=> get soc_to_fpga_axis be : soc_to_fpga_axis_captured_count=  2,  soc_to_fpga_axis_captured[  2] =xxxxxxxxxxxx, fpga_is_as_tupsb=00, fpga_is_as_tstrb=0, fpga_is_as_tkeep=0 , fpga_is_as_tlast=0, fpga_is_as_tdata=fffffff6
               12705=> get soc_to_fpga_axis af : soc_to_fpga_axis_captured_count=  2,  soc_to_fpga_axis_captured[  2] =0000fffffff6, fpga_is_as_tupsb=00, fpga_is_as_tstrb=0, fpga_is_as_tkeep=0 , fpga_is_as_tlast=0, fpga_is_as_tdata=fffffff6
               13265=> get soc_to_fpga_axis be : soc_to_fpga_axis_captured_count=  3,  soc_to_fpga_axis_captured[  3] =xxxxxxxxxxxx, fpga_is_as_tupsb=00, fpga_is_as_tstrb=0, fpga_is_as_tkeep=0 , fpga_is_as_tlast=0, fpga_is_as_tdata=ffffffe3
               13265=> get soc_to_fpga_axis af : soc_to_fpga_axis_captured_count=  3,  soc_to_fpga_axis_captured[  3] =0000ffffffe3, fpga_is_as_tupsb=00, fpga_is_as_tstrb=0, fpga_is_as_tkeep=0 , fpga_is_as_tlast=0, fpga_is_as_tdata=ffffffe3
               13825=> get soc_to_fpga_axis be : soc_to_fpga_axis_captured_count=  4,  soc_to_fpga_axis_captured[  4] =xxxxxxxxxxxx, fpga_is_as_tupsb=00, fpga_is_as_tstrb=0, fpga_is_as_tkeep=0 , fpga_is_as_tlast=0, fpga_is_as_tdata=ffffffe7
               13825=> get soc_to_fpga_axis af : soc_to_fpga_axis_captured_count=  4,  soc_to_fpga_axis_captured[  4] =0000ffffffe7, fpga_is_as_tupsb=00, fpga_is_as_tstrb=0, fpga_is_as_tkeep=0 , fpga_is_as_tlast=0, fpga_is_as_tdata=ffffffe7
               14385=> get soc_to_fpga_axis be : soc_to_fpga_axis_captured_count=  5,  soc_to_fpga_axis_captured[  5] =xxxxxxxxxxxx, fpga_is_as_tupsb=00, fpga_is_as_tstrb=0, fpga_is_as_tkeep=0 , fpga_is_as_tlast=0, fpga_is_as_tdata=00000023
               14385=> get soc_to_fpga_axis af : soc_to_fpga_axis_captured_count=  5,  soc_to_fpga_axis_captured[  5] =000000000023, fpga_is_as_tupsb=00, fpga_is_as_tstrb=0, fpga_is_as_tkeep=0 , fpga_is_as_tlast=0, fpga_is_as_tdata=00000023
               14945=> get soc_to_fpga_axis be : soc_to_fpga_axis_captured_count=  6,  soc_to_fpga_axis_captured[  6] =xxxxxxxxxxxx, fpga_is_as_tupsb=00, fpga_is_as_tstrb=0, fpga_is_as_tkeep=0 , fpga_is_as_tlast=0, fpga_is_as_tdata=0000009e
               14945=> get soc_to_fpga_axis af : soc_to_fpga_axis_captured_count=  6,  soc_to_fpga_axis_captured[  6] =00000000009e, fpga_is_as_tupsb=00, fpga_is_as_tstrb=0, fpga_is_as_tkeep=0 , fpga_is_as_tlast=0, fpga_is_as_tdata=0000009e
               15505=> get soc_to_fpga_axis be : soc_to_fpga_axis_captured_count=  7,  soc_to_fpga_axis_captured[  7] =xxxxxxxxxxxx, fpga_is_as_tupsb=00, fpga_is_as_tstrb=0, fpga_is_as_tkeep=0 , fpga_is_as_tlast=0, fpga_is_as_tdata=00000151
               15505=> get soc_to_fpga_axis af : soc_to_fpga_axis_captured_count=  7,  soc_to_fpga_axis_captured[  7] =000000000151, fpga_is_as_tupsb=00, fpga_is_as_tstrb=0, fpga_is_as_tkeep=0 , fpga_is_as_tlast=0, fpga_is_as_tdata=00000151
               16065=> get soc_to_fpga_axis be : soc_to_fpga_axis_captured_count=  8,  soc_to_fpga_axis_captured[  8] =xxxxxxxxxxxx, fpga_is_as_tupsb=00, fpga_is_as_tstrb=0, fpga_is_as_tkeep=0 , fpga_is_as_tlast=0, fpga_is_as_tdata=0000021b
               16065=> get soc_to_fpga_axis af : soc_to_fpga_axis_captured_count=  8,  soc_to_fpga_axis_captured[  8] =00000000021b, fpga_is_as_tupsb=00, fpga_is_as_tstrb=0, fpga_is_as_tkeep=0 , fpga_is_as_tlast=0, fpga_is_as_tdata=0000021b
               16185=> fpga_axis_req send data, fpga_as_is_tupsb = 00000, fpga_as_is_tstrb = 0000, fpga_as_is_tkeep = 0000, fpga_as_is_tlast = 0, fpga_as_is_tdata = 00000011
               16225=> fpga_axis_req send data, fpga_as_is_tupsb = 00000, fpga_as_is_tstrb = 0000, fpga_as_is_tkeep = 0000, fpga_as_is_tlast = 0, fpga_as_is_tdata = 00000012
               16265=> fpga_axis_req send data, fpga_as_is_tupsb = 00000, fpga_as_is_tstrb = 0000, fpga_as_is_tkeep = 0000, fpga_as_is_tlast = 0, fpga_as_is_tdata = 00000013
               16305=> fpga_axis_req send data, fpga_as_is_tupsb = 00000, fpga_as_is_tstrb = 0000, fpga_as_is_tkeep = 0000, fpga_as_is_tlast = 0, fpga_as_is_tdata = 00000014
               16345=> fpga_axis_req send data, fpga_as_is_tupsb = 00000, fpga_as_is_tstrb = 0000, fpga_as_is_tkeep = 0000, fpga_as_is_tlast = 0, fpga_as_is_tdata = 00000015
               16385=> fpga_axis_req send data, fpga_as_is_tupsb = 00000, fpga_as_is_tstrb = 0000, fpga_as_is_tkeep = 0000, fpga_as_is_tlast = 0, fpga_as_is_tdata = 00000016
               16425=> fpga_axis_req send data, fpga_as_is_tupsb = 00000, fpga_as_is_tstrb = 0000, fpga_as_is_tkeep = 0000, fpga_as_is_tlast = 0, fpga_as_is_tdata = 00000017
               16465=> fpga_axis_req send data, fpga_as_is_tupsb = 00000, fpga_as_is_tstrb = 0000, fpga_as_is_tkeep = 0000, fpga_as_is_tlast = 0, fpga_as_is_tdata = 00000018
               16505=> fpga_axis_req send data, fpga_as_is_tupsb = 00000, fpga_as_is_tstrb = 0000, fpga_as_is_tkeep = 0000, fpga_as_is_tlast = 0, fpga_as_is_tdata = 00000019
               16625=> get soc_to_fpga_axis be : soc_to_fpga_axis_captured_count=  9,  soc_to_fpga_axis_captured[  9] =xxxxxxxxxxxx, fpga_is_as_tupsb=00, fpga_is_as_tstrb=0, fpga_is_as_tkeep=0 , fpga_is_as_tlast=0, fpga_is_as_tdata=000002dc
               16625=> get soc_to_fpga_axis af : soc_to_fpga_axis_captured_count=  9,  soc_to_fpga_axis_captured[  9] =0000000002dc, fpga_is_as_tupsb=00, fpga_is_as_tstrb=0, fpga_is_as_tkeep=0 , fpga_is_as_tlast=0, fpga_is_as_tdata=000002dc
               17185=> get soc_to_fpga_axis be : soc_to_fpga_axis_captured_count= 10,  soc_to_fpga_axis_captured[ 10] =xxxxxxxxxxxx, fpga_is_as_tupsb=00, fpga_is_as_tstrb=0, fpga_is_as_tkeep=0 , fpga_is_as_tlast=0, fpga_is_as_tdata=00000393
               17185=> get soc_to_fpga_axis af : soc_to_fpga_axis_captured_count= 10,  soc_to_fpga_axis_captured[ 10] =000000000393, fpga_is_as_tupsb=00, fpga_is_as_tstrb=0, fpga_is_as_tkeep=0 , fpga_is_as_tlast=0, fpga_is_as_tdata=00000393
               17745=> get soc_to_fpga_axis be : soc_to_fpga_axis_captured_count= 11,  soc_to_fpga_axis_captured[ 11] =xxxxxxxxxxxx, fpga_is_as_tupsb=00, fpga_is_as_tstrb=0, fpga_is_as_tkeep=0 , fpga_is_as_tlast=0, fpga_is_as_tdata=0000044a
               17745=> get soc_to_fpga_axis af : soc_to_fpga_axis_captured_count= 11,  soc_to_fpga_axis_captured[ 11] =00000000044a, fpga_is_as_tupsb=00, fpga_is_as_tstrb=0, fpga_is_as_tkeep=0 , fpga_is_as_tlast=0, fpga_is_as_tdata=0000044a
               18305=> get soc_to_fpga_axis be : soc_to_fpga_axis_captured_count= 12,  soc_to_fpga_axis_captured[ 12] =xxxxxxxxxxxx, fpga_is_as_tupsb=00, fpga_is_as_tstrb=0, fpga_is_as_tkeep=0 , fpga_is_as_tlast=0, fpga_is_as_tdata=00000501
               18305=> get soc_to_fpga_axis af : soc_to_fpga_axis_captured_count= 12,  soc_to_fpga_axis_captured[ 12] =000000000501, fpga_is_as_tupsb=00, fpga_is_as_tstrb=0, fpga_is_as_tkeep=0 , fpga_is_as_tlast=0, fpga_is_as_tdata=00000501
               18865=> get soc_to_fpga_axis be : soc_to_fpga_axis_captured_count= 13,  soc_to_fpga_axis_captured[ 13] =xxxxxxxxxxxx, fpga_is_as_tupsb=00, fpga_is_as_tstrb=0, fpga_is_as_tkeep=0 , fpga_is_as_tlast=0, fpga_is_as_tdata=000005b8
               18865=> get soc_to_fpga_axis af : soc_to_fpga_axis_captured_count= 13,  soc_to_fpga_axis_captured[ 13] =0000000005b8, fpga_is_as_tupsb=00, fpga_is_as_tstrb=0, fpga_is_as_tkeep=0 , fpga_is_as_tlast=0, fpga_is_as_tdata=000005b8
               19425=> get soc_to_fpga_axis be : soc_to_fpga_axis_captured_count= 14,  soc_to_fpga_axis_captured[ 14] =xxxxxxxxxxxx, fpga_is_as_tupsb=00, fpga_is_as_tstrb=0, fpga_is_as_tkeep=0 , fpga_is_as_tlast=0, fpga_is_as_tdata=0000066f
               19425=> get soc_to_fpga_axis af : soc_to_fpga_axis_captured_count= 14,  soc_to_fpga_axis_captured[ 14] =00000000066f, fpga_is_as_tupsb=00, fpga_is_as_tstrb=0, fpga_is_as_tkeep=0 , fpga_is_as_tlast=0, fpga_is_as_tdata=0000066f
               19985=> get soc_to_fpga_axis be : soc_to_fpga_axis_captured_count= 15,  soc_to_fpga_axis_captured[ 15] =xxxxxxxxxxxx, fpga_is_as_tupsb=00, fpga_is_as_tstrb=0, fpga_is_as_tkeep=0 , fpga_is_as_tlast=0, fpga_is_as_tdata=00000726
               19985=> get soc_to_fpga_axis af : soc_to_fpga_axis_captured_count= 15,  soc_to_fpga_axis_captured[ 15] =000000000726, fpga_is_as_tupsb=00, fpga_is_as_tstrb=0, fpga_is_as_tkeep=0 , fpga_is_as_tlast=0, fpga_is_as_tdata=00000726
               20545=> get soc_to_fpga_axis be : soc_to_fpga_axis_captured_count= 16,  soc_to_fpga_axis_captured[ 16] =xxxxxxxxxxxx, fpga_is_as_tupsb=00, fpga_is_as_tstrb=0, fpga_is_as_tkeep=0 , fpga_is_as_tlast=0, fpga_is_as_tdata=000007dd
               20545=> get soc_to_fpga_axis af : soc_to_fpga_axis_captured_count= 16,  soc_to_fpga_axis_captured[ 16] =0000000007dd, fpga_is_as_tupsb=00, fpga_is_as_tstrb=0, fpga_is_as_tkeep=0 , fpga_is_as_tlast=0, fpga_is_as_tdata=000007dd
               21105=> get soc_to_fpga_axis be : soc_to_fpga_axis_captured_count= 17,  soc_to_fpga_axis_captured[ 17] =xxxxxxxxxxxx, fpga_is_as_tupsb=00, fpga_is_as_tstrb=0, fpga_is_as_tkeep=0 , fpga_is_as_tlast=0, fpga_is_as_tdata=00000894
               21105=> get soc_to_fpga_axis af : soc_to_fpga_axis_captured_count= 17,  soc_to_fpga_axis_captured[ 17] =000000000894, fpga_is_as_tupsb=00, fpga_is_as_tstrb=0, fpga_is_as_tkeep=0 , fpga_is_as_tlast=0, fpga_is_as_tdata=00000894
               21225=> fpga_axis_req send data, fpga_as_is_tupsb = 00000, fpga_as_is_tstrb = 0000, fpga_as_is_tkeep = 0000, fpga_as_is_tlast = 0, fpga_as_is_tdata = 0000001a
               21265=> fpga_axis_req send data, fpga_as_is_tupsb = 00000, fpga_as_is_tstrb = 0000, fpga_as_is_tkeep = 0000, fpga_as_is_tlast = 0, fpga_as_is_tdata = 0000001b
               21305=> fpga_axis_req send data, fpga_as_is_tupsb = 00000, fpga_as_is_tstrb = 0000, fpga_as_is_tkeep = 0000, fpga_as_is_tlast = 0, fpga_as_is_tdata = 0000001c
               21345=> fpga_axis_req send data, fpga_as_is_tupsb = 00000, fpga_as_is_tstrb = 0000, fpga_as_is_tkeep = 0000, fpga_as_is_tlast = 0, fpga_as_is_tdata = 0000001d
               21385=> fpga_axis_req send data, fpga_as_is_tupsb = 00000, fpga_as_is_tstrb = 0000, fpga_as_is_tkeep = 0000, fpga_as_is_tlast = 0, fpga_as_is_tdata = 0000001e
               21425=> fpga_axis_req send data, fpga_as_is_tupsb = 00000, fpga_as_is_tstrb = 0000, fpga_as_is_tkeep = 0000, fpga_as_is_tlast = 0, fpga_as_is_tdata = 0000001f
               21465=> fpga_axis_req send data, fpga_as_is_tupsb = 00000, fpga_as_is_tstrb = 0000, fpga_as_is_tkeep = 0000, fpga_as_is_tlast = 0, fpga_as_is_tdata = 00000020
               21505=> fpga_axis_req send data, fpga_as_is_tupsb = 00000, fpga_as_is_tstrb = 0000, fpga_as_is_tkeep = 0000, fpga_as_is_tlast = 0, fpga_as_is_tdata = 00000021
               21545=> fpga_axis_req send data, fpga_as_is_tupsb = 00000, fpga_as_is_tstrb = 0000, fpga_as_is_tkeep = 0000, fpga_as_is_tlast = 0, fpga_as_is_tdata = 00000022
